raw2jpeg/.Xil/Vivado-3388-rtrkos034/hw_ila_data_1/zip_work/waveform.vcd
$date
        2019-Aug-13 12:26:54
$end
$version
        Vivado v2017.2 (64-bit)
$end
$timescale
        1ps
$end
$scope module dut $end
$var reg 8 " converter_i/system_ila_0/inst/probe0_1 [7:0] $end
$var reg 6 * converter_i/system_ila_0/inst/probe1_1 [5:0] $end
$var reg 8 0 converter_i/system_ila_0/inst/probe2_1 [7:0] $end
$var reg 1 8 converter_i/system_ila_0/inst/probe3_1 $end
$var reg 1 9 converter_i/system_ila_0/inst/probe4_1 $end
$var reg 8 : converter_i/system_ila_0/inst/probe5_1 [7:0] $end
$var reg 14 B converter_i/system_ila_0/inst/probe6_1 [13:0] $end
$var reg 2 P converter_i/system_ila_0/inst/net_slot_0_axi_ar_cnt [1:0] $end
$var reg 4 R converter_i/system_ila_0/inst/net_slot_0_axi_araddr [3:0] $end
$var reg 3 V converter_i/system_ila_0/inst/net_slot_0_axi_arprot [2:0] $end
$var reg 2 Y converter_i/system_ila_0/inst/net_slot_0_axi_aw_cnt [1:0] $end
$var reg 4 [ converter_i/system_ila_0/inst/net_slot_0_axi_awaddr [3:0] $end
$var reg 3 _ converter_i/system_ila_0/inst/net_slot_0_axi_awprot [2:0] $end
$var reg 2 b converter_i/system_ila_0/inst/net_slot_0_axi_b_cnt [1:0] $end
$var reg 2 d converter_i/system_ila_0/inst/net_slot_0_axi_bresp [1:0] $end
$var reg 2 f converter_i/system_ila_0/inst/net_slot_0_axi_r_cnt [1:0] $end
$var reg 32 h converter_i/system_ila_0/inst/net_slot_0_axi_rdata [31:0] $end
$var reg 2 *" converter_i/system_ila_0/inst/net_slot_0_axi_rresp [1:0] $end
$var reg 32 ," converter_i/system_ila_0/inst/net_slot_0_axi_wdata [31:0] $end
$var reg 4 L" converter_i/system_ila_0/inst/net_slot_0_axi_wstrb [3:0] $end
$var reg 2 P" converter_i/system_ila_0/inst/net_slot_0_axi_aw_ctrl [1:0] $end
$var reg 1 R" converter_i/system_ila_0/inst/net_slot_0_axi_awvalid $end
$var reg 1 S" converter_i/system_ila_0/inst/net_slot_0_axi_awready $end
$var reg 2 T" converter_i/system_ila_0/inst/net_slot_0_axi_w_ctrl [1:0] $end
$var reg 1 V" converter_i/system_ila_0/inst/net_slot_0_axi_wvalid $end
$var reg 1 W" converter_i/system_ila_0/inst/net_slot_0_axi_wready $end
$var reg 1 X" converter_i/system_ila_0/inst/net_slot_0_axi_bvalid $end
$var reg 2 Y" converter_i/system_ila_0/inst/net_slot_0_axi_b_ctrl [1:0] $end
$var reg 1 [" converter_i/system_ila_0/inst/net_slot_0_axi_bready $end
$var reg 2 \" converter_i/system_ila_0/inst/net_slot_0_axi_ar_ctrl [1:0] $end
$var reg 1 ^" converter_i/system_ila_0/inst/net_slot_0_axi_arvalid $end
$var reg 1 _" converter_i/system_ila_0/inst/net_slot_0_axi_arready $end
$var reg 2 `" converter_i/system_ila_0/inst/net_slot_0_axi_r_ctrl [1:0] $end
$var reg 1 b" converter_i/system_ila_0/inst/net_slot_0_axi_rvalid $end
$var reg 1 c" converter_i/system_ila_0/inst/net_slot_0_axi_rready $end
$var reg 3 d" AR_Channel__i1_s0___ps7_0_axi_periph_M00_AXI_ [2:0] $end
$var reg 3 g" AW_Channel__i1_s0___ps7_0_axi_periph_M00_AXI_ [2:0] $end
$var reg 3 j" B_Channel__i1_s0___ps7_0_axi_periph_M00_AXI_ [2:0] $end
$var reg 3 m" R_Channel__i1_s0___ps7_0_axi_periph_M00_AXI_ [2:0] $end
$var reg 3 p" W_Channel__i1_s0___ps7_0_axi_periph_M00_AXI_ [2:0] $end
$var reg 1 s" _TRIGGER $end
$var reg 1 t" _WINDOW $end
$var reg 1 u" _GAP $end
$upscope $end
$enddefinitions $end
#0
$dumpvars
b1 "
b110010 *
b0 0
18
09
b0 :
b0 B
b0 P
b10 R
b101 V
b0 Y
b1011 [
b100 _
b0 b
b0 d
b0 f
b0 h
b0 *"
b1000101100010011111100111000111 ,"
b1111 L"
b0 P"
0R"
0S"
b0 T"
0V"
0W"
0X"
b10 Y"
1["
b0 \"
0^"
0_"
b10 `"
0b"
1c"
b11 d"
b11 g"
b11 j"
b100 m"
b100 p"
1s"
1t"
0u"
$end
#1
b10 "
b110011 *
#2
b11 "
b110100 *
#3
b100 "
b110101 *
#4
b101 "
b110110 *
#5
b110 "
b110111 *
#6
b111 "
b111000 *
#7
b1000 "
b111001 *
#8
b1 "
b111010 *
#9
b10 "
b111011 *
b11111111111000 B
#10
b11 "
b111100 *
b0 B
#11
b100 "
b111101 *
#12
b101 "
b111110 *
#13
b110 "
b111111 *
#14
b111 "
b0 *
#15
b1000 "
b1 *
#16
b1 "
b10 *
#17
b10 "
b11 *
#18
b11 "
b100 *
#19
b100 "
b101 *
#20
b101 "
b110 *
#21
b110 "
b111 *
#22
b111 "
b1000 *
#23
b1000 "
b1001 *
#24
b1 "
b1010 *
#25
b10 "
b1011 *
#26
b11 "
b1100 *
#27
b100 "
b1101 *
#28
b101 "
b1110 *
#29
b110 "
b1111 *
#30
b111 "
b10000 *
#31
b1000 "
b10001 *
#32
b1 "
b10010 *
#33
b10 "
b10011 *
b100100000 B
#34
b11 "
b10100 *
b10000 0
b0 B
#35
b100 "
b10101 *
b0 0
#36
b101 "
b10110 *
#37
b110 "
b10111 *
#38
b111 "
b11000 *
#39
b1000 "
b11001 *
#40
b1 "
b11010 *
#41
b10 "
b11011 *
b11111100110000 B
#42
b11 "
b11100 *
b11110101 0
b0 B
#43
b100 "
b11101 *
b0 0
#44
b101 "
b11110 *
#45
b110 "
b11111 *
#46
b111 "
b100000 *
#47
b1000 "
b100001 *
#48
b1 "
b100010 *
#49
b10 "
b100011 *
#50
b11 "
b100100 *
#51
b100 "
b100101 *
#52
b101 "
b100110 *
#53
b110 "
b100111 *
#54
b111 "
b101000 *
#55
b1000 "
b101001 *
#56
b1 "
b101010 *
#57
b10 "
b101011 *
b11111111111000 B
#58
b11 "
b101100 *
b0 B
#59
b100 "
b101101 *
#60
b101 "
b101110 *
#61
b110 "
b101111 *
#62
b111 "
b110000 *
#63
b1000 "
b110001 *
#64
b1 "
b110010 *
#65
b10 "
b110011 *
#66
b11 "
b110100 *
#67
b100 "
b110101 *
#68
b101 "
b110110 *
#69
b110 "
b110111 *
#70
b111 "
b111000 *
#71
b1000 "
b111001 *
#72
b1 "
b111010 *
#73
b10 "
b111011 *
b11111111111000 B
#74
b11 "
b111100 *
b0 B
#75
b100 "
b111101 *
#76
b101 "
b111110 *
#77
b110 "
b111111 *
#78
b111 "
b0 *
#79
b1000 "
b1 *
#80
b1 "
b10 *
#81
b10 "
b11 *
#82
b11 "
b100 *
#83
b100 "
b101 *
#84
b101 "
b110 *
#85
b110 "
b111 *
#86
b111 "
b1000 *
#87
b1000 "
b1001 *
#88
b1 "
b1010 *
#89
b10 "
b1011 *
#90
b11 "
b1100 *
#91
b100 "
b1101 *
#92
b101 "
b1110 *
#93
b110 "
b1111 *
#94
b111 "
b10000 *
#95
b1000 "
b10001 *
#96
b1 "
b10010 *
#97
b10 "
b10011 *
b100100000 B
#98
b11 "
b10100 *
b10000 0
b0 B
#99
b100 "
b10101 *
b0 0
#100
b101 "
b10110 *
#101
b110 "
b10111 *
#102
b111 "
b11000 *
#103
b1000 "
b11001 *
#104
b1 "
b11010 *
#105
b10 "
b11011 *
b11111100110000 B
#106
b11 "
b11100 *
b11110101 0
b0 B
#107
b100 "
b11101 *
b0 0
#108
b101 "
b11110 *
#109
b110 "
b11111 *
#110
b111 "
b100000 *
#111
b1000 "
b100001 *
#112
b1 "
b100010 *
#113
b10 "
b100011 *
#114
b11 "
b100100 *
#115
b100 "
b100101 *
#116
b101 "
b100110 *
#117
b110 "
b100111 *
#118
b111 "
b101000 *
#119
b1000 "
b101001 *
#120
b1 "
b101010 *
#121
b10 "
b101011 *
b11111111111000 B
#122
b11 "
b101100 *
b0 B
#123
b100 "
b101101 *
#124
b101 "
b101110 *
#125
b110 "
b101111 *
#126
b111 "
b110000 *
#127
b1000 "
b110001 *
#128
b1 "
b110010 *
#129
b10 "
b110011 *
#130
b11 "
b110100 *
#131
b100 "
b110101 *
#132
b101 "
b110110 *
#133
b110 "
b110111 *
#134
b111 "
b111000 *
#135
b1000 "
b111001 *
#136
b1 "
b111010 *
#137
b10 "
b111011 *
b11111111111000 B
#138
b11 "
b111100 *
b0 B
#139
b100 "
b111101 *
#140
b101 "
b111110 *
#141
b110 "
b111111 *
#142
b111 "
b0 *
#143
b1000 "
b1 *
#144
b1 "
b10 *
#145
b10 "
b11 *
#146
b11 "
b100 *
#147
b100 "
b101 *
#148
b101 "
b110 *
#149
b110 "
b111 *
#150
b111 "
b1000 *
#151
b1000 "
b1001 *
#152
b1 "
b1010 *
#153
b10 "
b1011 *
#154
b11 "
b1100 *
#155
b100 "
b1101 *
#156
b101 "
b1110 *
#157
b110 "
b1111 *
#158
b111 "
b10000 *
#159
b1000 "
b10001 *
#160
b1 "
b10010 *
#161
b10 "
b10011 *
b100100000 B
#162
b11 "
b10100 *
b10000 0
b0 B
#163
b100 "
b10101 *
b0 0
#164
b101 "
b10110 *
#165
b110 "
b10111 *
#166
b111 "
b11000 *
#167
b1000 "
b11001 *
#168
b1 "
b11010 *
#169
b10 "
b11011 *
b11111100110000 B
#170
b11 "
b11100 *
b11110101 0
b0 B
#171
b100 "
b11101 *
b0 0
#172
b101 "
b11110 *
#173
b110 "
b11111 *
#174
b111 "
b100000 *
#175
b1000 "
b100001 *
#176
b1 "
b100010 *
#177
b10 "
b100011 *
#178
b11 "
b100100 *
#179
b100 "
b100101 *
#180
b101 "
b100110 *
#181
b110 "
b100111 *
#182
b111 "
b101000 *
#183
b1000 "
b101001 *
#184
b1 "
b101010 *
#185
b10 "
b101011 *
b11111111111000 B
#186
b11 "
b101100 *
b0 B
#187
b100 "
b101101 *
#188
b101 "
b101110 *
#189
b110 "
b101111 *
#190
b111 "
b110000 *
#191
b1000 "
b110001 *
#192
b1 "
b110010 *
#193
b10 "
b110011 *
#194
b11 "
b110100 *
#195
b100 "
b110101 *
#196
b101 "
b110110 *
#197
b110 "
b110111 *
#198
b111 "
b111000 *
#199
b1000 "
b111001 *
#200
b1 "
b111010 *
#201
b10 "
b111011 *
b11111111111000 B
#202
b11 "
b111100 *
b0 B
#203
b100 "
b111101 *
#204
b101 "
b111110 *
#205
b110 "
b111111 *
#206
b111 "
b0 *
#207
b1000 "
b1 *
#208
b1 "
b10 *
#209
b10 "
b11 *
#210
b11 "
b100 *
#211
b100 "
b101 *
#212
b101 "
b110 *
#213
b110 "
b111 *
#214
b111 "
b1000 *
#215
b1000 "
b1001 *
#216
b1 "
b1010 *
#217
b10 "
b1011 *
#218
b11 "
b1100 *
#219
b100 "
b1101 *
#220
b101 "
b1110 *
#221
b110 "
b1111 *
#222
b111 "
b10000 *
#223
b1000 "
b10001 *
#224
b1 "
b10010 *
#225
b10 "
b10011 *
b100100000 B
#226
b11 "
b10100 *
b10000 0
b0 B
#227
b100 "
b10101 *
b0 0
#228
b101 "
b10110 *
#229
b110 "
b10111 *
#230
b111 "
b11000 *
#231
b1000 "
b11001 *
#232
b1 "
b11010 *
#233
b10 "
b11011 *
b11111100110000 B
#234
b11 "
b11100 *
b11110101 0
b0 B
#235
b100 "
b11101 *
b0 0
#236
b101 "
b11110 *
#237
b110 "
b11111 *
#238
b111 "
b100000 *
#239
b1000 "
b100001 *
#240
b1 "
b100010 *
#241
b10 "
b100011 *
#242
b11 "
b100100 *
#243
b100 "
b100101 *
#244
b101 "
b100110 *
#245
b110 "
b100111 *
#246
b111 "
b101000 *
#247
b1000 "
b101001 *
#248
b1 "
b101010 *
#249
b10 "
b101011 *
b11111111111000 B
#250
b11 "
b101100 *
b0 B
#251
b100 "
b101101 *
#252
b101 "
b101110 *
#253
b110 "
b101111 *
#254
b111 "
b110000 *
#255
b1000 "
b110001 *
#256
b1 "
b110010 *
#257
b10 "
b110011 *
#258
b11 "
b110100 *
#259
b100 "
b110101 *
#260
b101 "
b110110 *
#261
b110 "
b110111 *
#262
b111 "
b111000 *
#263
b1000 "
b111001 *
#264
b1 "
b111010 *
#265
b10 "
b111011 *
b11111111111000 B
#266
b11 "
b111100 *
b0 B
#267
b100 "
b111101 *
#268
b101 "
b111110 *
#269
b110 "
b111111 *
#270
b111 "
b0 *
#271
b1000 "
b1 *
#272
b1 "
b10 *
#273
b10 "
b11 *
#274
b11 "
b100 *
#275
b100 "
b101 *
#276
b101 "
b110 *
#277
b110 "
b111 *
#278
b111 "
b1000 *
#279
b1000 "
b1001 *
#280
b1 "
b1010 *
#281
b10 "
b1011 *
#282
b11 "
b1100 *
#283
b100 "
b1101 *
#284
b101 "
b1110 *
#285
b110 "
b1111 *
#286
b111 "
b10000 *
#287
b1000 "
b10001 *
#288
b1 "
b10010 *
#289
b10 "
b10011 *
b100100000 B
#290
b11 "
b10100 *
b10000 0
b0 B
#291
b100 "
b10101 *
b0 0
#292
b101 "
b10110 *
#293
b110 "
b10111 *
#294
b111 "
b11000 *
#295
b1000 "
b11001 *
#296
b1 "
b11010 *
#297
b10 "
b11011 *
b11111100110000 B
#298
b11 "
b11100 *
b11110101 0
b0 B
#299
b100 "
b11101 *
b0 0
#300
b101 "
b11110 *
#301
b110 "
b11111 *
#302
b111 "
b100000 *
#303
b1000 "
b100001 *
#304
b1 "
b100010 *
#305
b10 "
b100011 *
#306
b11 "
b100100 *
#307
b100 "
b100101 *
#308
b101 "
b100110 *
#309
b110 "
b100111 *
#310
b111 "
b101000 *
#311
b1000 "
b101001 *
#312
b1 "
b101010 *
#313
b10 "
b101011 *
b11111111111000 B
#314
b11 "
b101100 *
b0 B
#315
b100 "
b101101 *
#316
b101 "
b101110 *
#317
b110 "
b101111 *
#318
b111 "
b110000 *
#319
b1000 "
b110001 *
#320
b1 "
b110010 *
#321
b10 "
b110011 *
#322
b11 "
b110100 *
#323
b100 "
b110101 *
#324
b101 "
b110110 *
#325
b110 "
b110111 *
#326
b111 "
b111000 *
#327
b1000 "
b111001 *
#328
b1 "
b111010 *
#329
b10 "
b111011 *
b11111111111000 B
#330
b11 "
b111100 *
b0 B
#331
b100 "
b111101 *
#332
b101 "
b111110 *
#333
b110 "
b111111 *
#334
b111 "
b0 *
#335
b1000 "
b1 *
#336
b1 "
b10 *
#337
b10 "
b11 *
#338
b11 "
b100 *
#339
b100 "
b101 *
#340
b101 "
b110 *
#341
b110 "
b111 *
#342
b111 "
b1000 *
#343
b1000 "
b1001 *
#344
b1 "
b1010 *
#345
b10 "
b1011 *
#346
b11 "
b1100 *
#347
b100 "
b1101 *
#348
b101 "
b1110 *
#349
b110 "
b1111 *
#350
b111 "
b10000 *
#351
b1000 "
b10001 *
#352
b1 "
b10010 *
#353
b10 "
b10011 *
b100100000 B
#354
b11 "
b10100 *
b10000 0
b0 B
#355
b100 "
b10101 *
b0 0
#356
b101 "
b10110 *
#357
b110 "
b10111 *
#358
b111 "
b11000 *
#359
b1000 "
b11001 *
#360
b1 "
b11010 *
#361
b10 "
b11011 *
b11111100110000 B
#362
b11 "
b11100 *
b11110101 0
b0 B
#363
b100 "
b11101 *
b0 0
#364
b101 "
b11110 *
#365
b110 "
b11111 *
#366
b111 "
b100000 *
#367
b1000 "
b100001 *
#368
b1 "
b100010 *
#369
b10 "
b100011 *
#370
b11 "
b100100 *
#371
b100 "
b100101 *
#372
b101 "
b100110 *
#373
b110 "
b100111 *
#374
b111 "
b101000 *
#375
b1000 "
b101001 *
#376
b1 "
b101010 *
#377
b10 "
b101011 *
b11111111111000 B
#378
b11 "
b101100 *
b0 B
#379
b100 "
b101101 *
#380
b101 "
b101110 *
#381
b110 "
b101111 *
#382
b111 "
b110000 *
#383
b1000 "
b110001 *
#384
b1 "
b110010 *
#385
b10 "
b110011 *
#386
b11 "
b110100 *
#387
b100 "
b110101 *
#388
b101 "
b110110 *
#389
b110 "
b110111 *
#390
b111 "
b111000 *
#391
b1000 "
b111001 *
#392
b1 "
b111010 *
#393
b10 "
b111011 *
b11111111111000 B
#394
b11 "
b111100 *
b0 B
#395
b100 "
b111101 *
#396
b101 "
b111110 *
#397
b110 "
b111111 *
#398
b111 "
b0 *
#399
b1000 "
b1 *
#400
b1 "
b10 *
#401
b10 "
b11 *
#402
b11 "
b100 *
#403
b100 "
b101 *
#404
b101 "
b110 *
#405
b110 "
b111 *
#406
b111 "
b1000 *
#407
b1000 "
b1001 *
#408
b1 "
b1010 *
#409
b10 "
b1011 *
#410
b11 "
b1100 *
#411
b100 "
b1101 *
#412
b101 "
b1110 *
#413
b110 "
b1111 *
#414
b111 "
b10000 *
#415
b1000 "
b10001 *
#416
b1 "
b10010 *
#417
b10 "
b10011 *
b100100000 B
#418
b11 "
b10100 *
b10000 0
b0 B
#419
b100 "
b10101 *
b0 0
#420
b101 "
b10110 *
#421
b110 "
b10111 *
#422
b111 "
b11000 *
#423
b1000 "
b11001 *
#424
b1 "
b11010 *
#425
b10 "
b11011 *
b11111100110000 B
#426
b11 "
b11100 *
b11110101 0
b0 B
#427
b100 "
b11101 *
b0 0
#428
b101 "
b11110 *
#429
b110 "
b11111 *
#430
b111 "
b100000 *
#431
b1000 "
b100001 *
#432
b1 "
b100010 *
#433
b10 "
b100011 *
#434
b11 "
b100100 *
#435
b100 "
b100101 *
#436
b101 "
b100110 *
#437
b110 "
b100111 *
#438
b111 "
b101000 *
#439
b1000 "
b101001 *
#440
b1 "
b101010 *
#441
b10 "
b101011 *
b11111111111000 B
#442
b11 "
b101100 *
b0 B
#443
b100 "
b101101 *
#444
b101 "
b101110 *
#445
b110 "
b101111 *
#446
b111 "
b110000 *
#447
b1000 "
b110001 *
#448
b1 "
b110010 *
#449
b10 "
b110011 *
#450
b11 "
b110100 *
#451
b100 "
b110101 *
#452
b101 "
b110110 *
#453
b110 "
b110111 *
#454
b111 "
b111000 *
#455
b1000 "
b111001 *
#456
b1 "
b111010 *
#457
b10 "
b111011 *
b11111111111000 B
#458
b11 "
b111100 *
b0 B
#459
b100 "
b111101 *
#460
b101 "
b111110 *
#461
b110 "
b111111 *
#462
b111 "
b0 *
#463
b1000 "
b1 *
#464
b1 "
b10 *
#465
b10 "
b11 *
#466
b11 "
b100 *
#467
b100 "
b101 *
#468
b101 "
b110 *
#469
b110 "
b111 *
#470
b111 "
b1000 *
#471
b1000 "
b1001 *
#472
b1 "
b1010 *
#473
b10 "
b1011 *
#474
b11 "
b1100 *
#475
b100 "
b1101 *
#476
b101 "
b1110 *
#477
b110 "
b1111 *
#478
b111 "
b10000 *
#479
b1000 "
b10001 *
#480
b1 "
b10010 *
#481
b10 "
b10011 *
b100100000 B
#482
b11 "
b10100 *
b10000 0
b0 B
#483
b100 "
b10101 *
b0 0
#484
b101 "
b10110 *
#485
b110 "
b10111 *
#486
b111 "
b11000 *
#487
b1000 "
b11001 *
#488
b1 "
b11010 *
#489
b10 "
b11011 *
b11111100110000 B
#490
b11 "
b11100 *
b11110101 0
b0 B
#491
b100 "
b11101 *
b0 0
#492
b101 "
b11110 *
#493
b110 "
b11111 *
#494
b111 "
b100000 *
#495
b1000 "
b100001 *
#496
b1 "
b100010 *
#497
b10 "
b100011 *
#498
b11 "
b100100 *
#499
b100 "
b100101 *
#500
b101 "
b100110 *
#501
b110 "
b100111 *
#502
b111 "
b101000 *
#503
b1000 "
b101001 *
#504
b1 "
b101010 *
#505
b10 "
b101011 *
b11111111111000 B
#506
b11 "
b101100 *
b0 B
#507
b100 "
b101101 *
#508
b101 "
b101110 *
#509
b110 "
b101111 *
#510
b111 "
b110000 *
#511
b1000 "
b110001 *
#512
b1 "
b110010 *
#513
b10 "
b110011 *
#514
b11 "
b110100 *
#515
b100 "
b110101 *
#516
b101 "
b110110 *
#517
b110 "
b110111 *
#518
b111 "
b111000 *
#519
b1000 "
b111001 *
#520
b1 "
b111010 *
#521
b10 "
b111011 *
b11111111111000 B
#522
b11 "
b111100 *
b0 B
#523
b100 "
b111101 *
#524
b101 "
b111110 *
#525
b110 "
b111111 *
#526
b111 "
b0 *
#527
b1000 "
b1 *
#528
b1 "
b10 *
#529
b10 "
b11 *
#530
b11 "
b100 *
#531
b100 "
b101 *
#532
b101 "
b110 *
#533
b110 "
b111 *
#534
b111 "
b1000 *
#535
b1000 "
b1001 *
#536
b1 "
b1010 *
#537
b10 "
b1011 *
#538
b11 "
b1100 *
#539
b100 "
b1101 *
#540
b101 "
b1110 *
#541
b110 "
b1111 *
#542
b111 "
b10000 *
#543
b1000 "
b10001 *
#544
b1 "
b10010 *
#545
b10 "
b10011 *
b100100000 B
#546
b11 "
b10100 *
b10000 0
b0 B
#547
b100 "
b10101 *
b0 0
#548
b101 "
b10110 *
#549
b110 "
b10111 *
#550
b111 "
b11000 *
#551
b1000 "
b11001 *
#552
b1 "
b11010 *
#553
b10 "
b11011 *
b11111100110000 B
#554
b11 "
b11100 *
b11110101 0
b0 B
#555
b100 "
b11101 *
b0 0
#556
b101 "
b11110 *
#557
b110 "
b11111 *
#558
b111 "
b100000 *
#559
b1000 "
b100001 *
#560
b1 "
b100010 *
#561
b10 "
b100011 *
#562
b11 "
b100100 *
#563
b100 "
b100101 *
#564
b101 "
b100110 *
#565
b110 "
b100111 *
#566
b111 "
b101000 *
#567
b1000 "
b101001 *
#568
b1 "
b101010 *
#569
b10 "
b101011 *
b11111111111000 B
#570
b11 "
b101100 *
b0 B
#571
b100 "
b101101 *
#572
b101 "
b101110 *
#573
b110 "
b101111 *
#574
b111 "
b110000 *
#575
b1000 "
b110001 *
#576
b1 "
b110010 *
#577
b10 "
b110011 *
#578
b11 "
b110100 *
#579
b100 "
b110101 *
#580
b101 "
b110110 *
#581
b110 "
b110111 *
#582
b111 "
b111000 *
#583
b1000 "
b111001 *
#584
b1 "
b111010 *
#585
b10 "
b111011 *
b11111111111000 B
#586
b11 "
b111100 *
b0 B
#587
b100 "
b111101 *
#588
b101 "
b111110 *
#589
b110 "
b111111 *
#590
b111 "
b0 *
#591
b1000 "
b1 *
#592
b1 "
b10 *
#593
b10 "
b11 *
#594
b11 "
b100 *
#595
b100 "
b101 *
#596
b101 "
b110 *
#597
b110 "
b111 *
#598
b111 "
b1000 *
#599
b1000 "
b1001 *
#600
b1 "
b1010 *
#601
b10 "
b1011 *
#602
b11 "
b1100 *
#603
b100 "
b1101 *
#604
b101 "
b1110 *
#605
b110 "
b1111 *
#606
b111 "
b10000 *
#607
b1000 "
b10001 *
#608
b1 "
b10010 *
#609
b10 "
b10011 *
b100100000 B
#610
b11 "
b10100 *
b10000 0
b0 B
#611
b100 "
b10101 *
b0 0
#612
b101 "
b10110 *
#613
b110 "
b10111 *
#614
b111 "
b11000 *
#615
b1000 "
b11001 *
#616
b1 "
b11010 *
#617
b10 "
b11011 *
b11111100110000 B
#618
b11 "
b11100 *
b11110101 0
b0 B
#619
b100 "
b11101 *
b0 0
#620
b101 "
b11110 *
#621
b110 "
b11111 *
#622
b111 "
b100000 *
#623
b1000 "
b100001 *
#624
b1 "
b100010 *
#625
b10 "
b100011 *
#626
b11 "
b100100 *
#627
b100 "
b100101 *
#628
b101 "
b100110 *
#629
b110 "
b100111 *
#630
b111 "
b101000 *
#631
b1000 "
b101001 *
#632
b1 "
b101010 *
#633
b10 "
b101011 *
b11111111111000 B
#634
b11 "
b101100 *
b0 B
#635
b100 "
b101101 *
#636
b101 "
b101110 *
#637
b110 "
b101111 *
#638
b111 "
b110000 *
#639
b1000 "
b110001 *
#640
b1 "
b110010 *
#641
b10 "
b110011 *
#642
b11 "
b110100 *
#643
b100 "
b110101 *
#644
b101 "
b110110 *
#645
b110 "
b110111 *
#646
b111 "
b111000 *
#647
b1000 "
b111001 *
#648
b1 "
b111010 *
#649
b10 "
b111011 *
b11111111111000 B
#650
b11 "
b111100 *
b0 B
#651
b100 "
b111101 *
#652
b101 "
b111110 *
#653
b110 "
b111111 *
#654
b111 "
b0 *
#655
b1000 "
b1 *
#656
b1 "
b10 *
#657
b10 "
b11 *
#658
b11 "
b100 *
#659
b100 "
b101 *
#660
b101 "
b110 *
#661
b110 "
b111 *
#662
b111 "
b1000 *
#663
b1000 "
b1001 *
#664
b1 "
b1010 *
#665
b10 "
b1011 *
#666
b11 "
b1100 *
#667
b100 "
b1101 *
#668
b101 "
b1110 *
#669
b110 "
b1111 *
#670
b111 "
b10000 *
#671
b1000 "
b10001 *
#672
b1 "
b10010 *
#673
b10 "
b10011 *
b100100000 B
#674
b11 "
b10100 *
b10000 0
b0 B
#675
b100 "
b10101 *
b0 0
#676
b101 "
b10110 *
#677
b110 "
b10111 *
#678
b111 "
b11000 *
#679
b1000 "
b11001 *
#680
b1 "
b11010 *
#681
b10 "
b11011 *
b11111100110000 B
#682
b11 "
b11100 *
b11110101 0
b0 B
#683
b100 "
b11101 *
b0 0
#684
b101 "
b11110 *
#685
b110 "
b11111 *
#686
b111 "
b100000 *
#687
b1000 "
b100001 *
#688
b1 "
b100010 *
#689
b10 "
b100011 *
#690
b11 "
b100100 *
#691
b100 "
b100101 *
#692
b101 "
b100110 *
#693
b110 "
b100111 *
#694
b111 "
b101000 *
#695
b1000 "
b101001 *
#696
b1 "
b101010 *
#697
b10 "
b101011 *
b11111111111000 B
#698
b11 "
b101100 *
b0 B
#699
b100 "
b101101 *
#700
b101 "
b101110 *
#701
b110 "
b101111 *
#702
b111 "
b110000 *
#703
b1000 "
b110001 *
#704
b1 "
b110010 *
#705
b10 "
b110011 *
#706
b11 "
b110100 *
#707
b100 "
b110101 *
#708
b101 "
b110110 *
#709
b110 "
b110111 *
#710
b111 "
b111000 *
#711
b1000 "
b111001 *
#712
b1 "
b111010 *
#713
b10 "
b111011 *
b11111111111000 B
#714
b11 "
b111100 *
b0 B
#715
b100 "
b111101 *
#716
b101 "
b111110 *
#717
b110 "
b111111 *
#718
b111 "
b0 *
#719
b1000 "
b1 *
#720
b1 "
b10 *
#721
b10 "
b11 *
#722
b11 "
b100 *
#723
b100 "
b101 *
#724
b101 "
b110 *
#725
b110 "
b111 *
#726
b111 "
b1000 *
#727
b1000 "
b1001 *
#728
b1 "
b1010 *
#729
b10 "
b1011 *
#730
b11 "
b1100 *
#731
b100 "
b1101 *
#732
b101 "
b1110 *
#733
b110 "
b1111 *
#734
b111 "
b10000 *
#735
b1000 "
b10001 *
#736
b1 "
b10010 *
#737
b10 "
b10011 *
b100100000 B
#738
b11 "
b10100 *
b10000 0
b0 B
#739
b100 "
b10101 *
b0 0
#740
b101 "
b10110 *
#741
b110 "
b10111 *
#742
b111 "
b11000 *
#743
b1000 "
b11001 *
#744
b1 "
b11010 *
#745
b10 "
b11011 *
b11111100110000 B
#746
b11 "
b11100 *
b11110101 0
b0 B
#747
b100 "
b11101 *
b0 0
#748
b101 "
b11110 *
#749
b110 "
b11111 *
#750
b111 "
b100000 *
#751
b1000 "
b100001 *
#752
b1 "
b100010 *
#753
b10 "
b100011 *
#754
b11 "
b100100 *
#755
b100 "
b100101 *
#756
b101 "
b100110 *
#757
b110 "
b100111 *
#758
b111 "
b101000 *
#759
b1000 "
b101001 *
#760
b1 "
b101010 *
#761
b10 "
b101011 *
b11111111111000 B
#762
b11 "
b101100 *
b0 B
#763
b100 "
b101101 *
#764
b101 "
b101110 *
#765
b110 "
b101111 *
#766
b111 "
b110000 *
#767
b1000 "
b110001 *
#768
b1 "
b110010 *
#769
b10 "
b110011 *
#770
b11 "
b110100 *
#771
b100 "
b110101 *
#772
b101 "
b110110 *
#773
b110 "
b110111 *
#774
b111 "
b111000 *
#775
b1000 "
b111001 *
#776
b1 "
b111010 *
#777
b10 "
b111011 *
b11111111111000 B
#778
b11 "
b111100 *
b0 B
#779
b100 "
b111101 *
#780
b101 "
b111110 *
#781
b110 "
b111111 *
#782
b111 "
b0 *
#783
b1000 "
b1 *
#784
b1 "
b10 *
#785
b10 "
b11 *
#786
b11 "
b100 *
#787
b100 "
b101 *
#788
b101 "
b110 *
#789
b110 "
b111 *
#790
b111 "
b1000 *
#791
b1000 "
b1001 *
#792
b1 "
b1010 *
#793
b10 "
b1011 *
#794
b11 "
b1100 *
#795
b100 "
b1101 *
#796
b101 "
b1110 *
#797
b110 "
b1111 *
#798
b111 "
b10000 *
#799
b1000 "
b10001 *
#800
b1 "
b10010 *
#801
b10 "
b10011 *
b100100000 B
#802
b11 "
b10100 *
b10000 0
b0 B
#803
b100 "
b10101 *
b0 0
#804
b101 "
b10110 *
#805
b110 "
b10111 *
#806
b111 "
b11000 *
#807
b1000 "
b11001 *
#808
b1 "
b11010 *
#809
b10 "
b11011 *
b11111100110000 B
#810
b11 "
b11100 *
b11110101 0
b0 B
#811
b100 "
b11101 *
b0 0
#812
b101 "
b11110 *
#813
b110 "
b11111 *
#814
b111 "
b100000 *
#815
b1000 "
b100001 *
#816
b1 "
b100010 *
#817
b10 "
b100011 *
#818
b11 "
b100100 *
#819
b100 "
b100101 *
#820
b101 "
b100110 *
#821
b110 "
b100111 *
#822
b111 "
b101000 *
#823
b1000 "
b101001 *
#824
b1 "
b101010 *
#825
b10 "
b101011 *
b11111111111000 B
#826
b11 "
b101100 *
b0 B
#827
b100 "
b101101 *
#828
b101 "
b101110 *
#829
b110 "
b101111 *
#830
b111 "
b110000 *
#831
b1000 "
b110001 *
#832
b1 "
b110010 *
#833
b10 "
b110011 *
#834
b11 "
b110100 *
#835
b100 "
b110101 *
#836
b101 "
b110110 *
#837
b110 "
b110111 *
#838
b111 "
b111000 *
#839
b1000 "
b111001 *
#840
b1 "
b111010 *
#841
b10 "
b111011 *
b11111111111000 B
#842
b11 "
b111100 *
b0 B
#843
b100 "
b111101 *
#844
b101 "
b111110 *
