raw2jpeg/.Xil/Vivado-3388-rtrkos034/hw_ila_data_1/zip_work/waveform.vcd
$date
        2019-Aug-13 14:26:57
$end
$version
        Vivado v2017.2 (64-bit)
$end
$timescale
        1ps
$end
$scope module dut $end
$var reg 8 " converter_i/system_ila_0/inst/probe0_1 [7:0] $end
$var reg 8 * converter_i/system_ila_0/inst/probe1_1 [7:0] $end
$var reg 8 2 converter_i/system_ila_0/inst/probe2_1 [7:0] $end
$var reg 1 : converter_i/system_ila_0/inst/probe3_1 $end
$var reg 2 ; converter_i/system_ila_0/inst/net_slot_0_axi_ar_cnt [1:0] $end
$var reg 4 = converter_i/system_ila_0/inst/net_slot_0_axi_araddr [3:0] $end
$var reg 3 A converter_i/system_ila_0/inst/net_slot_0_axi_arprot [2:0] $end
$var reg 2 D converter_i/system_ila_0/inst/net_slot_0_axi_aw_cnt [1:0] $end
$var reg 4 F converter_i/system_ila_0/inst/net_slot_0_axi_awaddr [3:0] $end
$var reg 3 J converter_i/system_ila_0/inst/net_slot_0_axi_awprot [2:0] $end
$var reg 2 M converter_i/system_ila_0/inst/net_slot_0_axi_b_cnt [1:0] $end
$var reg 2 O converter_i/system_ila_0/inst/net_slot_0_axi_bresp [1:0] $end
$var reg 2 Q converter_i/system_ila_0/inst/net_slot_0_axi_r_cnt [1:0] $end
$var reg 32 S converter_i/system_ila_0/inst/net_slot_0_axi_rdata [31:0] $end
$var reg 2 s converter_i/system_ila_0/inst/net_slot_0_axi_rresp [1:0] $end
$var reg 32 u converter_i/system_ila_0/inst/net_slot_0_axi_wdata [31:0] $end
$var reg 4 7" converter_i/system_ila_0/inst/net_slot_0_axi_wstrb [3:0] $end
$var reg 2 ;" converter_i/system_ila_0/inst/net_slot_0_axi_aw_ctrl [1:0] $end
$var reg 1 =" converter_i/system_ila_0/inst/net_slot_0_axi_awvalid $end
$var reg 1 >" converter_i/system_ila_0/inst/net_slot_0_axi_awready $end
$var reg 2 ?" converter_i/system_ila_0/inst/net_slot_0_axi_w_ctrl [1:0] $end
$var reg 1 A" converter_i/system_ila_0/inst/net_slot_0_axi_wvalid $end
$var reg 1 B" converter_i/system_ila_0/inst/net_slot_0_axi_wready $end
$var reg 2 C" converter_i/system_ila_0/inst/net_slot_0_axi_b_ctrl [1:0] $end
$var reg 1 E" converter_i/system_ila_0/inst/net_slot_0_axi_bvalid $end
$var reg 1 F" converter_i/system_ila_0/inst/net_slot_0_axi_bready $end
$var reg 2 G" converter_i/system_ila_0/inst/net_slot_0_axi_ar_ctrl [1:0] $end
$var reg 1 I" converter_i/system_ila_0/inst/net_slot_0_axi_arvalid $end
$var reg 1 J" converter_i/system_ila_0/inst/net_slot_0_axi_arready $end
$var reg 2 K" converter_i/system_ila_0/inst/net_slot_0_axi_r_ctrl [1:0] $end
$var reg 1 M" converter_i/system_ila_0/inst/net_slot_0_axi_rvalid $end
$var reg 1 N" converter_i/system_ila_0/inst/net_slot_0_axi_rready $end
$var reg 3 O" AR_Channel__i1_s0___ps7_0_axi_periph_M00_AXI_ [2:0] $end
$var reg 3 R" AW_Channel__i1_s0___ps7_0_axi_periph_M00_AXI_ [2:0] $end
$var reg 3 U" B_Channel__i1_s0___ps7_0_axi_periph_M00_AXI_ [2:0] $end
$var reg 3 X" R_Channel__i1_s0___ps7_0_axi_periph_M00_AXI_ [2:0] $end
$var reg 3 [" W_Channel__i1_s0___ps7_0_axi_periph_M00_AXI_ [2:0] $end
$var reg 1 ^" _TRIGGER $end
$var reg 1 _" _WINDOW $end
$var reg 1 `" _GAP $end
$upscope $end
$enddefinitions $end
#0
$dumpvars
b0 "
b0 *
b0 2
0:
b0 ;
b10 =
b101 A
b0 D
b1011 F
b100 J
b0 M
b0 O
b0 Q
b0 S
b0 s
b1000101100010111111100111000111 u
b1111 7"
b0 ;"
0="
0>"
b0 ?"
0A"
0B"
b10 C"
0E"
1F"
b0 G"
0I"
0J"
b10 K"
0M"
1N"
b11 O"
b11 R"
b11 U"
b100 X"
b100 ["
1^"
1_"
0`"
$end
#38
b10000 "
#39
b0 "
#46
b11110101 "
#47
b0 "
#102
b10000 "
#103
b0 "
#110
b11110101 "
#111
b0 "
#166
b10000 "
#167
b0 "
#174
b11110101 "
#175
b0 "
#230
b10000 "
#231
b0 "
#238
b11110101 "
#239
b0 "
#294
b10000 "
#295
b0 "
#302
b11110101 "
#303
b0 "
#358
b10000 "
#359
b0 "
#366
b11110101 "
#367
b0 "
#422
b10000 "
#423
b0 "
#430
b11110101 "
#431
b0 "
#486
b10000 "
#487
b0 "
#494
b11110101 "
#495
b0 "
#550
b10000 "
#551
b0 "
#558
b11110101 "
#559
b0 "
#614
b10000 "
#615
b0 "
#622
b11110101 "
#623
b0 "
#678
b10000 "
#679
b0 "
#686
b11110101 "
#687
b0 "
#742
b10000 "
#743
b0 "
#750
b11110101 "
#751
b0 "
#806
b10000 "
#807
b0 "
#814
b11110101 "
#815
b0 "
#870
b10000 "
#871
b0 "
#878
b11110101 "
#879
b0 "
#934
b10000 "
#935
b0 "
#942
b11110101 "
#943
b0 "
#998
b10000 "
#999
b0 "
#1006
b11110101 "
#1007
b0 "
#1062
b10000 "
#1063
b0 "
#1070
b11110101 "
#1071
b0 "
#1126
b10000 "
#1127
b0 "
#1134
b11110101 "
#1135
b0 "
#1190
b10000 "
#1191
b0 "
#1198
b11110101 "
#1199
b0 "
#1254
b10000 "
#1255
b0 "
#1262
b11110101 "
#1263
b0 "
#1318
b10000 "
#1319
b0 "
#1326
b11110101 "
#1327
b0 "
#1382
b10000 "
#1383
b0 "
#1390
b11110101 "
#1391
b0 "
#1446
b10000 "
#1447
b0 "
#1454
b11110101 "
#1455
b0 "
#1510
b10000 "
#1511
b0 "
#1518
b11110101 "
#1519
b0 "
#1574
b10000 "
#1575
b0 "
#1582
b11110101 "
#1583
b0 "
#1638
b10000 "
#1639
b0 "
#1646
b11110101 "
#1647
b0 "
#1702
b10000 "
#1703
b0 "
#1710
b11110101 "
#1711
b0 "
#1766
b10000 "
#1767
b0 "
#1774
b11110101 "
#1775
b0 "
#1830
b10000 "
#1831
b0 "
#1838
b11110101 "
#1839
b0 "
#1894
b10000 "
#1895
b0 "
#1902
b11110101 "
#1903
b0 "
#1958
b10000 "
#1959
b0 "
#1966
b11110101 "
#1967
b0 "
#2022
b10000 "
#2023
b0 "
#2030
b11110101 "
#2031
b0 "
