raw2jpeg/.Xil/Vivado-3068-rtrkos034/hw_ila_data_1/zip_work/waveform.vcd
$date
        2019-Aug-13 10:46:34
$end
$version
        Vivado v2017.2 (64-bit)
$end
$timescale
        1ps
$end
$scope module dut $end
$var reg 8 " converter_i/system_ila_0/inst/probe0_1 [7:0] $end
$var reg 6 * converter_i/system_ila_0/inst/probe1_1 [5:0] $end
$var reg 8 0 converter_i/system_ila_0/inst/probe2_1 [7:0] $end
$var reg 1 8 converter_i/system_ila_0/inst/probe3_1 $end
$var reg 1 9 converter_i/system_ila_0/inst/probe4_1 $end
$var reg 8 : converter_i/system_ila_0/inst/probe5_1 [7:0] $end
$var reg 14 B converter_i/system_ila_0/inst/probe6_1 [13:0] $end
$var reg 2 P converter_i/system_ila_0/inst/net_slot_0_axi_ar_cnt [1:0] $end
$var reg 4 R converter_i/system_ila_0/inst/net_slot_0_axi_araddr [3:0] $end
$var reg 3 V converter_i/system_ila_0/inst/net_slot_0_axi_arprot [2:0] $end
$var reg 2 Y converter_i/system_ila_0/inst/net_slot_0_axi_aw_cnt [1:0] $end
$var reg 4 [ converter_i/system_ila_0/inst/net_slot_0_axi_awaddr [3:0] $end
$var reg 3 _ converter_i/system_ila_0/inst/net_slot_0_axi_awprot [2:0] $end
$var reg 2 b converter_i/system_ila_0/inst/net_slot_0_axi_b_cnt [1:0] $end
$var reg 2 d converter_i/system_ila_0/inst/net_slot_0_axi_bresp [1:0] $end
$var reg 2 f converter_i/system_ila_0/inst/net_slot_0_axi_r_cnt [1:0] $end
$var reg 32 h converter_i/system_ila_0/inst/net_slot_0_axi_rdata [31:0] $end
$var reg 2 *" converter_i/system_ila_0/inst/net_slot_0_axi_rresp [1:0] $end
$var reg 32 ," converter_i/system_ila_0/inst/net_slot_0_axi_wdata [31:0] $end
$var reg 4 L" converter_i/system_ila_0/inst/net_slot_0_axi_wstrb [3:0] $end
$var reg 2 P" converter_i/system_ila_0/inst/net_slot_0_axi_aw_ctrl [1:0] $end
$var reg 1 R" converter_i/system_ila_0/inst/net_slot_0_axi_awvalid $end
$var reg 1 S" converter_i/system_ila_0/inst/net_slot_0_axi_awready $end
$var reg 2 T" converter_i/system_ila_0/inst/net_slot_0_axi_w_ctrl [1:0] $end
$var reg 1 V" converter_i/system_ila_0/inst/net_slot_0_axi_wvalid $end
$var reg 1 W" converter_i/system_ila_0/inst/net_slot_0_axi_wready $end
$var reg 1 X" converter_i/system_ila_0/inst/net_slot_0_axi_bvalid $end
$var reg 2 Y" converter_i/system_ila_0/inst/net_slot_0_axi_b_ctrl [1:0] $end
$var reg 1 [" converter_i/system_ila_0/inst/net_slot_0_axi_bready $end
$var reg 2 \" converter_i/system_ila_0/inst/net_slot_0_axi_ar_ctrl [1:0] $end
$var reg 1 ^" converter_i/system_ila_0/inst/net_slot_0_axi_arvalid $end
$var reg 1 _" converter_i/system_ila_0/inst/net_slot_0_axi_arready $end
$var reg 2 `" converter_i/system_ila_0/inst/net_slot_0_axi_r_ctrl [1:0] $end
$var reg 1 b" converter_i/system_ila_0/inst/net_slot_0_axi_rvalid $end
$var reg 1 c" converter_i/system_ila_0/inst/net_slot_0_axi_rready $end
$var reg 3 d" AR_Channel__i1_s0___ps7_0_axi_periph_M00_AXI_ [2:0] $end
$var reg 3 g" AW_Channel__i1_s0___ps7_0_axi_periph_M00_AXI_ [2:0] $end
$var reg 3 j" B_Channel__i1_s0___ps7_0_axi_periph_M00_AXI_ [2:0] $end
$var reg 3 m" R_Channel__i1_s0___ps7_0_axi_periph_M00_AXI_ [2:0] $end
$var reg 3 p" W_Channel__i1_s0___ps7_0_axi_periph_M00_AXI_ [2:0] $end
$var reg 1 s" _TRIGGER $end
$var reg 1 t" _WINDOW $end
$var reg 1 u" _GAP $end
$upscope $end
$enddefinitions $end
#0
$dumpvars
b10 "
b11 *
b0 0
18
09
b0 :
b10110001 B
b0 P
b110 R
b100 V
b0 Y
b0 [
b1 _
b0 b
b0 d
b0 f
b0 h
b0 *"
b110111111 ,"
b1111 L"
b0 P"
0R"
0S"
b1 T"
1V"
0W"
0X"
b10 Y"
1["
b0 \"
0^"
0_"
b10 `"
0b"
1c"
b11 d"
b11 g"
b11 j"
b100 m"
b100 p"
1s"
1t"
0u"
$end
#1
b11 "
b100 *
b11111010 0
b100101 B
#2
b100 "
b101 *
b11111111 0
b11111111000000 B
#3
b101 "
b110 *
b10 0
b11111111110110 B
#4
b110 "
b111 *
b0 0
#5
b111 "
b1000 *
b11111111101100 B
#6
b1000 "
b1001 *
b10101010 B
#7
b1 "
b1010 *
b11111011 0
b1000 B
#8
b10 "
b1011 *
b0 0
b11111111111000 B
#9
b11 "
b1100 *
b0 B
#10
b100 "
b1101 *
#11
b101 "
b1110 *
#12
b110 "
b1111 *
#13
b111 "
b10000 *
#14
b1000 "
b10001 *
#15
b1 "
b10010 *
#16
b10 "
b10011 *
b11111111111011 B
#17
b11 "
b10100 *
b11111111111111 B
#18
b100 "
b10101 *
b1 B
#19
b101 "
b10110 *
#20
b110 "
b10111 *
b0 B
#21
b111 "
b11000 *
b10 B
#22
b1000 "
b11001 *
b11111111111010 B
#23
b1 "
b11010 *
b0 B
#24
b10 "
b11011 *
#25
b11 "
b11100 *
#26
b100 "
b11101 *
#27
b101 "
b11110 *
#28
b110 "
b11111 *
#29
b111 "
b100000 *
#30
b1000 "
b100001 *
#31
b1 "
b100010 *
#32
b10 "
b100011 *
#33
b11 "
b100100 *
#34
b100 "
b100101 *
#35
b101 "
b100110 *
#36
b110 "
b100111 *
#37
b111 "
b101000 *
#38
b1000 "
b101001 *
#39
b1 "
b101010 *
#40
b10 "
b101011 *
b11111110110010 B
#41
b11 "
b101100 *
b11111111 0
b11010 B
#42
b100 "
b101101 *
b0 0
b11111111010011 B
#43
b101 "
b101110 *
b1 0
b11111111111001 B
#44
b110 "
b101111 *
b0 0
b11111111111010 B
#45
b111 "
b110000 *
b11111111110010 B
#46
b1000 "
b110001 *
b1110111 B
#47
b1 "
b110010 *
b11111100 0
b101 B
#48
b10 "
b110011 *
b0 0
b11111101111110 B
#49
b11 "
b110100 *
b100 0
b11111111100110 B
#50
b100 "
b110101 *
b0 0
b101100 B
#51
b101 "
b110110 *
b11111111 0
b1000 B
#52
b110 "
b110111 *
b0 0
b101 B
#53
b111 "
b111000 *
b10001 B
#54
b1000 "
b111001 *
b11111110000110 B
#55
b1 "
b111010 *
b100 0
b11111111111100 B
#56
b10 "
b111011 *
b0 0
b1101100 B
#57
b11 "
b111100 *
b11111101 0
b11111111011100 B
#58
b100 "
b111101 *
b1 0
b111101 B
#59
b101 "
b111110 *
b11111110 0
b1011 B
#60
b110 "
b111111 *
b0 0
b1000 B
#61
b111 "
b0 *
b10110 B
#62
b1000 "
b1 *
b11111101010111 B
#63
b1 "
b10 *
b101 0
b11111111111011 B
#64
b10 "
b11 *
b0 0
b10110001 B
#65
b11 "
b100 *
b11111010 0
b100101 B
#66
b100 "
b101 *
b11111111 0
b11111111000000 B
#67
b101 "
b110 *
b10 0
b11111111110110 B
#68
b110 "
b111 *
b0 0
#69
b111 "
b1000 *
b11111111101100 B
#70
b1000 "
b1001 *
b10101010 B
#71
b1 "
b1010 *
b11111011 0
b1000 B
#72
b10 "
b1011 *
b0 0
b11111111111000 B
#73
b11 "
b1100 *
b0 B
#74
b100 "
b1101 *
#75
b101 "
b1110 *
#76
b110 "
b1111 *
#77
b111 "
b10000 *
#78
b1000 "
b10001 *
#79
b1 "
b10010 *
#80
b10 "
b10011 *
b11111111111011 B
#81
b11 "
b10100 *
b11111111111111 B
#82
b100 "
b10101 *
b1 B
#83
b101 "
b10110 *
#84
b110 "
b10111 *
b0 B
#85
b111 "
b11000 *
b10 B
#86
b1000 "
b11001 *
b11111111111010 B
#87
b1 "
b11010 *
b0 B
#88
b10 "
b11011 *
#89
b11 "
b11100 *
#90
b100 "
b11101 *
#91
b101 "
b11110 *
#92
b110 "
b11111 *
#93
b111 "
b100000 *
#94
b1000 "
b100001 *
#95
b1 "
b100010 *
#96
b10 "
b100011 *
#97
b11 "
b100100 *
#98
b100 "
b100101 *
#99
b101 "
b100110 *
#100
b110 "
b100111 *
#101
b111 "
b101000 *
#102
b1000 "
b101001 *
#103
b1 "
b101010 *
#104
b10 "
b101011 *
b11111110110010 B
#105
b11 "
b101100 *
b11111111 0
b11010 B
#106
b100 "
b101101 *
b0 0
b11111111010011 B
#107
b101 "
b101110 *
b1 0
b11111111111001 B
#108
b110 "
b101111 *
b0 0
b11111111111010 B
#109
b111 "
b110000 *
b11111111110010 B
#110
b1000 "
b110001 *
b1110111 B
#111
b1 "
b110010 *
b11111100 0
b101 B
#112
b10 "
b110011 *
b0 0
b11111101111110 B
#113
b11 "
b110100 *
b100 0
b11111111100110 B
#114
b100 "
b110101 *
b0 0
b101100 B
#115
b101 "
b110110 *
b11111111 0
b1000 B
#116
b110 "
b110111 *
b0 0
b101 B
#117
b111 "
b111000 *
b10001 B
#118
b1000 "
b111001 *
b11111110000110 B
#119
b1 "
b111010 *
b100 0
b11111111111100 B
#120
b10 "
b111011 *
b0 0
b1101100 B
#121
b11 "
b111100 *
b11111101 0
b11111111011100 B
#122
b100 "
b111101 *
b1 0
b111101 B
#123
b101 "
b111110 *
b11111110 0
b1011 B
#124
b110 "
b111111 *
b0 0
b1000 B
#125
b111 "
b0 *
b10110 B
#126
b1000 "
b1 *
b11111101010111 B
#127
b1 "
b10 *
b101 0
b11111111111011 B
#128
b10 "
b11 *
b0 0
b10110001 B
#129
b11 "
b100 *
b11111010 0
b100101 B
#130
b100 "
b101 *
b11111111 0
b11111111000000 B
#131
b101 "
b110 *
b10 0
b11111111110110 B
#132
b110 "
b111 *
b0 0
#133
b111 "
b1000 *
b11111111101100 B
#134
b1000 "
b1001 *
b10101010 B
#135
b1 "
b1010 *
b11111011 0
b1000 B
#136
b10 "
b1011 *
b0 0
b11111111111000 B
#137
b11 "
b1100 *
b0 B
#138
b100 "
b1101 *
#139
b101 "
b1110 *
#140
b110 "
b1111 *
#141
b111 "
b10000 *
#142
b1000 "
b10001 *
#143
b1 "
b10010 *
#144
b10 "
b10011 *
b11111111111011 B
#145
b11 "
b10100 *
b11111111111111 B
#146
b100 "
b10101 *
b1 B
#147
b101 "
b10110 *
#148
b110 "
b10111 *
b0 B
#149
b111 "
b11000 *
b10 B
#150
b1000 "
b11001 *
b11111111111010 B
#151
b1 "
b11010 *
b0 B
#152
b10 "
b11011 *
#153
b11 "
b11100 *
#154
b100 "
b11101 *
#155
b101 "
b11110 *
#156
b110 "
b11111 *
#157
b111 "
b100000 *
#158
b1000 "
b100001 *
#159
b1 "
b100010 *
#160
b10 "
b100011 *
#161
b11 "
b100100 *
#162
b100 "
b100101 *
#163
b101 "
b100110 *
#164
b110 "
b100111 *
#165
b111 "
b101000 *
#166
b1000 "
b101001 *
#167
b1 "
b101010 *
#168
b10 "
b101011 *
b11111110110010 B
#169
b11 "
b101100 *
b11111111 0
b11010 B
#170
b100 "
b101101 *
b0 0
b11111111010011 B
#171
b101 "
b101110 *
b1 0
b11111111111001 B
#172
b110 "
b101111 *
b0 0
b11111111111010 B
#173
b111 "
b110000 *
b11111111110010 B
#174
b1000 "
b110001 *
b1110111 B
#175
b1 "
b110010 *
b11111100 0
b101 B
#176
b10 "
b110011 *
b0 0
b11111101111110 B
#177
b11 "
b110100 *
b100 0
b11111111100110 B
#178
b100 "
b110101 *
b0 0
b101100 B
#179
b101 "
b110110 *
b11111111 0
b1000 B
#180
b110 "
b110111 *
b0 0
b101 B
#181
b111 "
b111000 *
b10001 B
#182
b1000 "
b111001 *
b11111110000110 B
#183
b1 "
b111010 *
b100 0
b11111111111100 B
#184
b10 "
b111011 *
b0 0
b1101100 B
#185
b11 "
b111100 *
b11111101 0
b11111111011100 B
#186
b100 "
b111101 *
b1 0
b111101 B
#187
b101 "
b111110 *
b11111110 0
b1011 B
#188
b110 "
b111111 *
b0 0
b1000 B
#189
b111 "
b0 *
b10110 B
#190
b1000 "
b1 *
b11111101010111 B
#191
b1 "
b10 *
b101 0
b11111111111011 B
#192
b10 "
b11 *
b0 0
b10110001 B
#193
b11 "
b100 *
b11111010 0
b100101 B
#194
b100 "
b101 *
b11111111 0
b11111111000000 B
#195
b101 "
b110 *
b10 0
b11111111110110 B
#196
b110 "
b111 *
b0 0
#197
b111 "
b1000 *
b11111111101100 B
#198
b1000 "
b1001 *
b10101010 B
#199
b1 "
b1010 *
b11111011 0
b1000 B
#200
b10 "
b1011 *
b0 0
b11111111111000 B
#201
b11 "
b1100 *
b0 B
#202
b100 "
b1101 *
#203
b101 "
b1110 *
#204
b110 "
b1111 *
#205
b111 "
b10000 *
#206
b1000 "
b10001 *
#207
b1 "
b10010 *
#208
b10 "
b10011 *
b11111111111011 B
#209
b11 "
b10100 *
b11111111111111 B
#210
b100 "
b10101 *
b1 B
#211
b101 "
b10110 *
#212
b110 "
b10111 *
b0 B
#213
b111 "
b11000 *
b10 B
#214
b1000 "
b11001 *
b11111111111010 B
#215
b1 "
b11010 *
b0 B
#216
b10 "
b11011 *
#217
b11 "
b11100 *
#218
b100 "
b11101 *
#219
b101 "
b11110 *
#220
b110 "
b11111 *
#221
b111 "
b100000 *
#222
b1000 "
b100001 *
#223
b1 "
b100010 *
#224
b10 "
b100011 *
#225
b11 "
b100100 *
#226
b100 "
b100101 *
#227
b101 "
b100110 *
#228
b110 "
b100111 *
#229
b111 "
b101000 *
#230
b1000 "
b101001 *
#231
b1 "
b101010 *
#232
b10 "
b101011 *
b11111110110010 B
#233
b11 "
b101100 *
b11111111 0
b11010 B
#234
b100 "
b101101 *
b0 0
b11111111010011 B
#235
b101 "
b101110 *
b1 0
b11111111111001 B
#236
b110 "
b101111 *
b0 0
b11111111111010 B
#237
b111 "
b110000 *
b11111111110010 B
#238
b1000 "
b110001 *
b1110111 B
#239
b1 "
b110010 *
b11111100 0
b101 B
#240
b10 "
b110011 *
b0 0
b11111101111110 B
#241
b11 "
b110100 *
b100 0
b11111111100110 B
#242
b100 "
b110101 *
b0 0
b101100 B
#243
b101 "
b110110 *
b11111111 0
b1000 B
#244
b110 "
b110111 *
b0 0
b101 B
#245
b111 "
b111000 *
b10001 B
#246
b1000 "
b111001 *
b11111110000110 B
#247
b1 "
b111010 *
b100 0
b11111111111100 B
#248
b10 "
b111011 *
b0 0
b1101100 B
#249
b11 "
b111100 *
b11111101 0
b11111111011100 B
#250
b100 "
b111101 *
b1 0
b111101 B
#251
b101 "
b111110 *
b11111110 0
b1011 B
#252
b110 "
b111111 *
b0 0
b1000 B
#253
b111 "
b0 *
b10110 B
#254
b1000 "
b1 *
b11111101010111 B
#255
b1 "
b10 *
b101 0
b11111111111011 B
#256
b10 "
b11 *
b0 0
b10110001 B
#257
b11 "
b100 *
b11111010 0
b100101 B
#258
b100 "
b101 *
b11111111 0
b11111111000000 B
#259
b101 "
b110 *
b10 0
b11111111110110 B
#260
b110 "
b111 *
b0 0
#261
b111 "
b1000 *
b11111111101100 B
#262
b1000 "
b1001 *
b10101010 B
#263
b1 "
b1010 *
b11111011 0
b1000 B
#264
b10 "
b1011 *
b0 0
b11111111111000 B
#265
b11 "
b1100 *
b0 B
#266
b100 "
b1101 *
#267
b101 "
b1110 *
#268
b110 "
b1111 *
#269
b111 "
b10000 *
#270
b1000 "
b10001 *
#271
b1 "
b10010 *
#272
b10 "
b10011 *
b11111111111011 B
#273
b11 "
b10100 *
b11111111111111 B
#274
b100 "
b10101 *
b1 B
#275
b101 "
b10110 *
#276
b110 "
b10111 *
b0 B
#277
b111 "
b11000 *
b10 B
#278
b1000 "
b11001 *
b11111111111010 B
#279
b1 "
b11010 *
b0 B
#280
b10 "
b11011 *
#281
b11 "
b11100 *
#282
b100 "
b11101 *
#283
b101 "
b11110 *
#284
b110 "
b11111 *
#285
b111 "
b100000 *
#286
b1000 "
b100001 *
#287
b1 "
b100010 *
#288
b10 "
b100011 *
#289
b11 "
b100100 *
#290
b100 "
b100101 *
#291
b101 "
b100110 *
#292
b110 "
b100111 *
#293
b111 "
b101000 *
#294
b1000 "
b101001 *
#295
b1 "
b101010 *
#296
b10 "
b101011 *
b11111110110010 B
#297
b11 "
b101100 *
b11111111 0
b11010 B
#298
b100 "
b101101 *
b0 0
b11111111010011 B
#299
b101 "
b101110 *
b1 0
b11111111111001 B
#300
b110 "
b101111 *
b0 0
b11111111111010 B
#301
b111 "
b110000 *
b11111111110010 B
#302
b1000 "
b110001 *
b1110111 B
#303
b1 "
b110010 *
b11111100 0
b101 B
#304
b10 "
b110011 *
b0 0
b11111101111110 B
#305
b11 "
b110100 *
b100 0
b11111111100110 B
#306
b100 "
b110101 *
b0 0
b101100 B
#307
b101 "
b110110 *
b11111111 0
b1000 B
#308
b110 "
b110111 *
b0 0
b101 B
#309
b111 "
b111000 *
b10001 B
#310
b1000 "
b111001 *
b11111110000110 B
#311
b1 "
b111010 *
b100 0
b11111111111100 B
#312
b10 "
b111011 *
b0 0
b1101100 B
#313
b11 "
b111100 *
b11111101 0
b11111111011100 B
#314
b100 "
b111101 *
b1 0
b111101 B
#315
b101 "
b111110 *
b11111110 0
b1011 B
#316
b110 "
b111111 *
b0 0
b1000 B
#317
b111 "
b0 *
b10110 B
#318
b1000 "
b1 *
b11111101010111 B
#319
b1 "
b10 *
b101 0
b11111111111011 B
#320
b10 "
b11 *
b0 0
b10110001 B
#321
b11 "
b100 *
b11111010 0
b100101 B
#322
b100 "
b101 *
b11111111 0
b11111111000000 B
#323
b101 "
b110 *
b10 0
b11111111110110 B
#324
b110 "
b111 *
b0 0
#325
b111 "
b1000 *
b11111111101100 B
#326
b1000 "
b1001 *
b10101010 B
#327
b1 "
b1010 *
b11111011 0
b1000 B
#328
b10 "
b1011 *
b0 0
b11111111111000 B
#329
b11 "
b1100 *
b0 B
#330
b100 "
b1101 *
#331
b101 "
b1110 *
#332
b110 "
b1111 *
#333
b111 "
b10000 *
#334
b1000 "
b10001 *
#335
b1 "
b10010 *
#336
b10 "
b10011 *
b11111111111011 B
#337
b11 "
b10100 *
b11111111111111 B
#338
b100 "
b10101 *
b1 B
#339
b101 "
b10110 *
#340
b110 "
b10111 *
b0 B
#341
b111 "
b11000 *
b10 B
#342
b1000 "
b11001 *
b11111111111010 B
#343
b1 "
b11010 *
b0 B
#344
b10 "
b11011 *
#345
b11 "
b11100 *
#346
b100 "
b11101 *
#347
b101 "
b11110 *
#348
b110 "
b11111 *
#349
b111 "
b100000 *
#350
b1000 "
b100001 *
#351
b1 "
b100010 *
#352
b10 "
b100011 *
#353
b11 "
b100100 *
#354
b100 "
b100101 *
#355
b101 "
b100110 *
#356
b110 "
b100111 *
#357
b111 "
b101000 *
#358
b1000 "
b101001 *
#359
b1 "
b101010 *
#360
b10 "
b101011 *
b11111110110010 B
#361
b11 "
b101100 *
b11111111 0
b11010 B
#362
b100 "
b101101 *
b0 0
b11111111010011 B
#363
b101 "
b101110 *
b1 0
b11111111111001 B
#364
b110 "
b101111 *
b0 0
b11111111111010 B
#365
b111 "
b110000 *
b11111111110010 B
#366
b1000 "
b110001 *
b1110111 B
#367
b1 "
b110010 *
b11111100 0
b101 B
#368
b10 "
b110011 *
b0 0
b11111101111110 B
#369
b11 "
b110100 *
b100 0
b11111111100110 B
#370
b100 "
b110101 *
b0 0
b101100 B
#371
b101 "
b110110 *
b11111111 0
b1000 B
#372
b110 "
b110111 *
b0 0
b101 B
#373
b111 "
b111000 *
b10001 B
#374
b1000 "
b111001 *
b11111110000110 B
#375
b1 "
b111010 *
b100 0
b11111111111100 B
#376
b10 "
b111011 *
b0 0
b1101100 B
#377
b11 "
b111100 *
b11111101 0
b11111111011100 B
#378
b100 "
b111101 *
b1 0
b111101 B
#379
b101 "
b111110 *
b11111110 0
b1011 B
#380
b110 "
b111111 *
b0 0
b1000 B
#381
b111 "
b0 *
b10110 B
#382
b1000 "
b1 *
b11111101010111 B
#383
b1 "
b10 *
b101 0
b11111111111011 B
#384
b10 "
b11 *
b0 0
b10110001 B
#385
b11 "
b100 *
b11111010 0
b100101 B
#386
b100 "
b101 *
b11111111 0
b11111111000000 B
#387
b101 "
b110 *
b10 0
b11111111110110 B
#388
b110 "
b111 *
b0 0
#389
b111 "
b1000 *
b11111111101100 B
#390
b1000 "
b1001 *
b10101010 B
#391
b1 "
b1010 *
b11111011 0
b1000 B
#392
b10 "
b1011 *
b0 0
b11111111111000 B
#393
b11 "
b1100 *
b0 B
#394
b100 "
b1101 *
#395
b101 "
b1110 *
#396
b110 "
b1111 *
#397
b111 "
b10000 *
#398
b1000 "
b10001 *
#399
b1 "
b10010 *
#400
b10 "
b10011 *
b11111111111011 B
#401
b11 "
b10100 *
b11111111111111 B
#402
b100 "
b10101 *
b1 B
#403
b101 "
b10110 *
#404
b110 "
b10111 *
b0 B
#405
b111 "
b11000 *
b10 B
#406
b1000 "
b11001 *
b11111111111010 B
#407
b1 "
b11010 *
b0 B
#408
b10 "
b11011 *
#409
b11 "
b11100 *
#410
b100 "
b11101 *
#411
b101 "
b11110 *
#412
b110 "
b11111 *
#413
b111 "
b100000 *
#414
b1000 "
b100001 *
#415
b1 "
b100010 *
#416
b10 "
b100011 *
#417
b11 "
b100100 *
#418
b100 "
b100101 *
#419
b101 "
b100110 *
#420
b110 "
b100111 *
#421
b111 "
b101000 *
#422
b1000 "
b101001 *
#423
b1 "
b101010 *
#424
b10 "
b101011 *
b11111110110010 B
#425
b11 "
b101100 *
b11111111 0
b11010 B
#426
b100 "
b101101 *
b0 0
b11111111010011 B
#427
b101 "
b101110 *
b1 0
b11111111111001 B
#428
b110 "
b101111 *
b0 0
b11111111111010 B
#429
b111 "
b110000 *
b11111111110010 B
#430
b1000 "
b110001 *
b1110111 B
#431
b1 "
b110010 *
b11111100 0
b101 B
#432
b10 "
b110011 *
b0 0
b11111101111110 B
#433
b11 "
b110100 *
b100 0
b11111111100110 B
#434
b100 "
b110101 *
b0 0
b101100 B
#435
b101 "
b110110 *
b11111111 0
b1000 B
#436
b110 "
b110111 *
b0 0
b101 B
#437
b111 "
b111000 *
b10001 B
#438
b1000 "
b111001 *
b11111110000110 B
#439
b1 "
b111010 *
b100 0
b11111111111100 B
#440
b10 "
b111011 *
b0 0
b1101100 B
#441
b11 "
b111100 *
b11111101 0
b11111111011100 B
#442
b100 "
b111101 *
b1 0
b111101 B
#443
b101 "
b111110 *
b11111110 0
b1011 B
#444
b110 "
b111111 *
b0 0
b1000 B
#445
b111 "
b0 *
b10110 B
#446
b1000 "
b1 *
b11111101010111 B
#447
b1 "
b10 *
b101 0
b11111111111011 B
#448
b10 "
b11 *
b0 0
b10110001 B
#449
b11 "
b100 *
b11111010 0
b100101 B
#450
b100 "
b101 *
b11111111 0
b11111111000000 B
#451
b101 "
b110 *
b10 0
b11111111110110 B
#452
b110 "
b111 *
b0 0
#453
b111 "
b1000 *
b11111111101100 B
#454
b1000 "
b1001 *
b10101010 B
#455
b1 "
b1010 *
b11111011 0
b1000 B
#456
b10 "
b1011 *
b0 0
b11111111111000 B
#457
b11 "
b1100 *
b0 B
#458
b100 "
b1101 *
#459
b101 "
b1110 *
#460
b110 "
b1111 *
#461
b111 "
b10000 *
#462
b1000 "
b10001 *
#463
b1 "
b10010 *
#464
b10 "
b10011 *
b11111111111011 B
#465
b11 "
b10100 *
b11111111111111 B
#466
b100 "
b10101 *
b1 B
#467
b101 "
b10110 *
#468
b110 "
b10111 *
b0 B
#469
b111 "
b11000 *
b10 B
#470
b1000 "
b11001 *
b11111111111010 B
#471
b1 "
b11010 *
b0 B
#472
b10 "
b11011 *
#473
b11 "
b11100 *
#474
b100 "
b11101 *
#475
b101 "
b11110 *
#476
b110 "
b11111 *
#477
b111 "
b100000 *
#478
b1000 "
b100001 *
#479
b1 "
b100010 *
#480
b10 "
b100011 *
#481
b11 "
b100100 *
#482
b100 "
b100101 *
#483
b101 "
b100110 *
#484
b110 "
b100111 *
#485
b111 "
b101000 *
#486
b1000 "
b101001 *
#487
b1 "
b101010 *
#488
b10 "
b101011 *
b11111110110010 B
#489
b11 "
b101100 *
b11111111 0
b11010 B
#490
b100 "
b101101 *
b0 0
b11111111010011 B
#491
b101 "
b101110 *
b1 0
b11111111111001 B
#492
b110 "
b101111 *
b0 0
b11111111111010 B
#493
b111 "
b110000 *
b11111111110010 B
#494
b1000 "
b110001 *
b1110111 B
#495
b1 "
b110010 *
b11111100 0
b101 B
#496
b10 "
b110011 *
b0 0
b11111101111110 B
#497
b11 "
b110100 *
b100 0
b11111111100110 B
#498
b100 "
b110101 *
b0 0
b101100 B
#499
b101 "
b110110 *
b11111111 0
b1000 B
#500
b110 "
b110111 *
b0 0
b101 B
#501
b111 "
b111000 *
b10001 B
#502
b1000 "
b111001 *
b11111110000110 B
#503
b1 "
b111010 *
b100 0
b11111111111100 B
#504
b10 "
b111011 *
b0 0
b1101100 B
#505
b11 "
b111100 *
b11111101 0
b11111111011100 B
#506
b100 "
b111101 *
b1 0
b111101 B
#507
b101 "
b111110 *
b11111110 0
b1011 B
#508
b110 "
b111111 *
b0 0
b1000 B
#509
b111 "
b0 *
b10110 B
#510
b1000 "
b1 *
b11111101010111 B
#511
b1 "
b10 *
b101 0
b11111111111011 B
#512
b10 "
b11 *
b0 0
b10110001 B
#513
b11 "
b100 *
b11111010 0
b100101 B
#514
b100 "
b101 *
b11111111 0
b11111111000000 B
#515
b101 "
b110 *
b10 0
b11111111110110 B
#516
b110 "
b111 *
b0 0
#517
b111 "
b1000 *
b11111111101100 B
#518
b1000 "
b1001 *
b10101010 B
#519
b1 "
b1010 *
b11111011 0
b1000 B
#520
b10 "
b1011 *
b0 0
b11111111111000 B
#521
b11 "
b1100 *
b0 B
#522
b100 "
b1101 *
#523
b101 "
b1110 *
#524
b110 "
b1111 *
#525
b111 "
b10000 *
#526
b1000 "
b10001 *
#527
b1 "
b10010 *
#528
b10 "
b10011 *
b11111111111011 B
#529
b11 "
b10100 *
b11111111111111 B
#530
b100 "
b10101 *
b1 B
#531
b101 "
b10110 *
#532
b110 "
b10111 *
b0 B
#533
b111 "
b11000 *
b10 B
#534
b1000 "
b11001 *
b11111111111010 B
#535
b1 "
b11010 *
b0 B
#536
b10 "
b11011 *
#537
b11 "
b11100 *
#538
b100 "
b11101 *
#539
b101 "
b11110 *
#540
b110 "
b11111 *
#541
b111 "
b100000 *
#542
b1000 "
b100001 *
#543
b1 "
b100010 *
#544
b10 "
b100011 *
#545
b11 "
b100100 *
#546
b100 "
b100101 *
#547
b101 "
b100110 *
#548
b110 "
b100111 *
#549
b111 "
b101000 *
#550
b1000 "
b101001 *
#551
b1 "
b101010 *
#552
b10 "
b101011 *
b11111110110010 B
#553
b11 "
b101100 *
b11111111 0
b11010 B
#554
b100 "
b101101 *
b0 0
b11111111010011 B
#555
b101 "
b101110 *
b1 0
b11111111111001 B
#556
b110 "
b101111 *
b0 0
b11111111111010 B
#557
b111 "
b110000 *
b11111111110010 B
#558
b1000 "
b110001 *
b1110111 B
#559
b1 "
b110010 *
b11111100 0
b101 B
#560
b10 "
b110011 *
b0 0
b11111101111110 B
#561
b11 "
b110100 *
b100 0
b11111111100110 B
#562
b100 "
b110101 *
b0 0
b101100 B
#563
b101 "
b110110 *
b11111111 0
b1000 B
#564
b110 "
b110111 *
b0 0
b101 B
#565
b111 "
b111000 *
b10001 B
#566
b1000 "
b111001 *
b11111110000110 B
#567
b1 "
b111010 *
b100 0
b11111111111100 B
#568
b10 "
b111011 *
b0 0
b1101100 B
#569
b11 "
b111100 *
b11111101 0
b11111111011100 B
#570
b100 "
b111101 *
b1 0
b111101 B
#571
b101 "
b111110 *
b11111110 0
b1011 B
#572
b110 "
b111111 *
b0 0
b1000 B
#573
b111 "
b0 *
b10110 B
#574
b1000 "
b1 *
b11111101010111 B
#575
b1 "
b10 *
b101 0
b11111111111011 B
#576
b10 "
b11 *
b0 0
b10110001 B
#577
b11 "
b100 *
b11111010 0
b100101 B
#578
b100 "
b101 *
b11111111 0
b11111111000000 B
#579
b101 "
b110 *
b10 0
b11111111110110 B
#580
b110 "
b111 *
b0 0
#581
b111 "
b1000 *
b11111111101100 B
#582
b1000 "
b1001 *
b10101010 B
#583
b1 "
b1010 *
b11111011 0
b1000 B
#584
b10 "
b1011 *
b0 0
b11111111111000 B
#585
b11 "
b1100 *
b0 B
#586
b100 "
b1101 *
#587
b101 "
b1110 *
#588
b110 "
b1111 *
#589
b111 "
b10000 *
#590
b1000 "
b10001 *
#591
b1 "
b10010 *
#592
b10 "
b10011 *
b11111111111011 B
#593
b11 "
b10100 *
b11111111111111 B
#594
b100 "
b10101 *
b1 B
#595
b101 "
b10110 *
#596
b110 "
b10111 *
b0 B
#597
b111 "
b11000 *
b10 B
#598
b1000 "
b11001 *
b11111111111010 B
#599
b1 "
b11010 *
b0 B
#600
b10 "
b11011 *
#601
b11 "
b11100 *
#602
b100 "
b11101 *
#603
b101 "
b11110 *
#604
b110 "
b11111 *
#605
b111 "
b100000 *
#606
b1000 "
b100001 *
#607
b1 "
b100010 *
#608
b10 "
b100011 *
#609
b11 "
b100100 *
#610
b100 "
b100101 *
#611
b101 "
b100110 *
#612
b110 "
b100111 *
#613
b111 "
b101000 *
#614
b1000 "
b101001 *
#615
b1 "
b101010 *
#616
b10 "
b101011 *
b11111110110010 B
#617
b11 "
b101100 *
b11111111 0
b11010 B
#618
b100 "
b101101 *
b0 0
b11111111010011 B
#619
b101 "
b101110 *
b1 0
b11111111111001 B
#620
b110 "
b101111 *
b0 0
b11111111111010 B
#621
b111 "
b110000 *
b11111111110010 B
#622
b1000 "
b110001 *
b1110111 B
#623
b1 "
b110010 *
b11111100 0
b101 B
